{
    "plans": [
      {
        "id": "0",
        "title": "Drop It",
        "nodes": [
          {
            "id": "ts1",
            "text": "Training Session 1",
            "editable": true,
            "next": [
              "ts2"
            ],
            "link": "-.->",
            "style": "available",
            "redirectTo": "ts:0"
          },
          {
            "id": "ts2",
            "text": "Training Session 2",
            "style": "unavailable",
            "editable": false,
            "redirectTo": "ts:1"
          }
        ],
        "completed": false,
        "level": 2,
        "lastExec": "2021-10-03T00:00:00.000Z",
        "visited": false
      },
      {
        "id": "1",
        "title": "Put Toys away",
        "nodes": [
          {
            "id": "1",
            "text": "Drop It",
            "editable": true,
            "edgeType": "circle",
            "link": "-.->",
            "next": [
              "3"
            ],
            "style": "available",
            "redirectTo": "pl:0"
          },
          {
            "id": "2",
            "text": "Fetch",
            "editable": false,
            "edgeType": "circle",
            "next": [
              "3"
            ],
            "link": "-.->",
            "style": "unavailable"
          },
          {
            "id": "3",
            "text": "Short Distance",
            "next": [
              "4"
            ],
            "link": "-.->",
            "style": "unavailable"
          },
          {
            "id": "4",
            "text": "Middle Distance",
            "next": [
              "5"
            ],
            "link": "-.->",
            "style": "unavailable"
          },
          {
            "id": "5",
            "text": "Long Distance",
            "style": "unavailable"
          }
        ],
        "completed": false,
        "level": 1,
        "lastExec": "2021-10-04T00:00:00.000Z",
        "visited": false
      },
      {
        "id": "2",
        "title": "Spin",
        "completed": false,
        "level": 1,
        "lastExec":"2021-10-03T00:00:00.000Z",
        "visited": false,
        "nodes": [
            {
                "id": "0",
                "text": "First step",
                "editable": true,
                "edgeType": "circle",
                "link": "-.->",
                "next": [
                    "1"
                ],
                "style": "available",
                "redirectTo": "ts:0"
            }
        ]
        }
    ]
  }